Static App
…
Rows: 5832 Columns: 9
── Column specification ────────────────────────────────────────────────────────
Delimiter: ","
chr (6): Week, GameStatus, GameSlot, GameDate, AwayTeam, HomeTeam
dbl (3): Season, AwayScore, HomeScore

ℹ Use `spec()` to retrieve the full column specification for this data.
ℹ Specify the column types or set `show_col_types = FALSE` to quiet this message.

football <- drop_na(football)

football

# A tibble: 5,267 × 9
   Season Week          GameStatus GameSlot GameDate AwayTeam AwayScore HomeTeam
    <dbl> <chr>         <chr>      <chr>    <chr>    <chr>        <dbl> <chr>   
 1   2010 HALL OF FAME  FINAL      Sunday   August … DAL             16 CIN     
 2   2010 PRESEASON WE… FINAL      Thursday August … CAR             12 BAL     
 3   2010 PRESEASON WE… FINAL      Thursday August … NO              24 NE      
 4   2010 PRESEASON WE… FINAL      Thursday August … OAK             17 DAL     
 5   2010 PRESEASON WE… FINAL      Friday   August … BUF             17 WAS     
 6   2010 PRESEASON WE… FINAL      Friday   August … JAC             27 PHI     
 7   2010 PRESEASON WE… FINAL      Friday   August … KC              10 ATL     
 8   2010 PRESEASON WE… FINAL      Saturday August … TB               7 MIA     
 9   2010 PRESEASON WE… FINAL      Saturday August … DET              7 PIT     
10   2010 PRESEASON WE… FINAL      Saturday August … CLE             27 GB      
# ℹ 5,257 more rows
# ℹ 1 more variable: HomeScore <dbl>
…
football$GameDate <- mdy(football$GameDate)

We then need to adjust some of the chr columns to factors.

football$Season <- as.factor(football$Season)
football$Week <- as.factor(football$Week)
football$GameStatus <- as.factor(football$GameStatus)
football$GameSlot <- as.factor(football$GameSlot)
football$AwayTeam <- as.factor(football$AwayTeam)
football$HomeTeam <- as.factor(football$HomeTeam)
football$Winner <- as.factor(football$Winner)

football

# A tibble: 5,267 × 10
   Season Week        GameStatus GameSlot GameDate   AwayTeam AwayScore HomeTeam
   <fct>  <fct>       <fct>      <fct>    <date>     <fct>        <dbl> <fct>   
 1 2010   HALL OF FA… FINAL      Sunday   2010-08-08 DAL             16 CIN     
 2 2010   PRESEASON … FINAL      Thursday 2010-08-12 CAR             12 BAL     
 3 2010   PRESEASON … FINAL      Thursday 2010-08-12 NO              24 NE      
 4 2010   PRESEASON … FINAL      Thursday 2010-08-12 OAK             17 DAL     
 5 2010   PRESEASON … FINAL      Friday   2010-08-13 BUF             17 WAS     
 6 2010   PRESEASON … FINAL      Friday   2010-08-13 JAC             27 PHI     
 7 2010   PRESEASON … FINAL      Friday   2010-08-13 KC              10 ATL     
 8 2010   PRESEASON … FINAL      Saturday 2010-08-14 TB               7 MIA     
 9 2010   PRESEASON … FINAL      Saturday 2010-08-14 DET              7 PIT     
10 2010   PRESEASON … FINAL      Saturday 2010-08-14 CLE             27 GB      
# ℹ 5,257 more rows
# ℹ 2 more variables: HomeScore <dbl>, Winner <fct>
…
